9.7 Checking the import worked correctly | Insights from Data
…
10.12 Moatt et al Data S6 – Eggs Data

10.13 Moatt et al Data S15 – Length, Weight and Condition Index Data

11 Summing up

References

9.7 Checking the import worked correctly

Now we should check some basic things about the imported data. Let’s start by checking if it has the correct number of rows and variables, and if variables are the expected (i.e. correct type). We can look at these features of the imported data in many ways. One useful method is to type the name of the data object in the Console and press enter:

dd

## # A tibble: 806 x 10
##     day count    w1    w2     w3 species prey.richness
##   <dbl> <chr> <dbl> <dbl>  <dbl>   <dbl>         <dbl>
## 1     2 52    0.356  6.32 0.322        1             1
## 2     2 0     0.356  1    1            4             1
## 3     2 66    0.360  6.56 0.323        1             1
## 4     2 0     0.360  1    1            4             1
## 5     2 21    0.303  5.67 0.0843       2             1
## # … with 801 more rows, and 3 more variables:
## #   prey.composition <dbl>, replicate <dbl>, jar <dbl>
…
