Chapter 4 Additional concepts | Insights from Data with R — Online Companion
…
In this report, the final column gives a quick indication of how well the moth species name in the dataset matched a known species name. A score of 1 is the highest match, 0 is the lowest. This tells us that Ethmia bipunctella and Bradycellus verbasci in the dataset correspond to known species—their matching score in the final column is 0.988. The third species in the dataset, however is Hoplodrina ambigua/ superstes and cannot be well matched to an individual known species—it has a score of 0.75. Likely this entry in the dataset corresponds with the text in the paper “When the same haplotype matched more than one species, we … classified them into a species group”. I.e. H. ambigua and H. superstes could not be distinguished and so were treated as a species group. (It takes a while to make these queries, so we don’t run one for every moth species name in the dataset.) There is lots more one can do with species names, but it’s a bit beyond the scope of this book, so we now move on.

4.3 Lurking variables

State that we simulated this data. Make the code available on r4all.

dd

## # A tibble: 400 x 3
##        x1      x2      y
##     <dbl>   <dbl>  <dbl>
## 1  0.514  -0.273   1.29 
## 2 -0.113   0.0120  1.51 
## 3  0.0643  0.194  -0.699
## 4 -0.655  -0.617  -0.760
## 5  0.502  -0.0538  1.33 
## # … with 395 more rows
…
