Chapter 7 What are the effects of dietary restriction? | Insights from Data with R — Online Companion
…
egg_ids <- unique(pull(eggs, Fish_ID))
courtship_ids <- unique(pull(courtship, Fish_ID))
length(unique(c(egg_ids, courtship_ids)))

## [1] 493

length_weight_condition %>%
  group_by(Diet_comp, Prov_level) %>%
  summarise(n(),
            n_unique=length(unique(Fish_ID)))

## # A tibble: 15 x 4
##   Diet_comp Prov_level `n()` n_unique
##   <chr>          <dbl> <int>    <int>
## 1 1.6:1             50   400       40
## 2 1.6:1             75   400       40
## 3 1.6:1            100   400       40
## 4 10.2:1            50   400       40
## 5 10.2:1            75   400       40
## # … with 10 more rows

length(unique(pull(length_weight_condition, Fish_ID)))

## [1] 600

40 of each, hence 600 fish IDs

mortality %>%
  group_by(Diet_comp, Prov_level) %>%
  summarise(n(),
            n_unique=length(unique(Fish_ID)))

## # A tibble: 15 x 4
##   Diet_comp Prov_level `n()` n_unique
##   <chr>          <dbl> <int>    <int>
## 1 1.6:1             50  2239       39
## 2 1.6:1             75  2519       40
## 3 1.6:1            100  2258       40
## 4 10.2:1            50  1951       40
## 5 10.2:1            75  1668       39
## # … with 10 more rows
…
