Chapter 10 Effects of dietary restriction | Insights from Data
…
How many missing values in the courtship dataset (remember to reduce the variables to those mentioned above)?

Which variable(s) contain missing values?

Which fish have missing values?

How many different entries are there in the Shelf_stack variable?

What are the mean and median of the Total_court variable?

What are the units of the Total_court variable? (From paper only, seconds)

skim(courtship)

## # A tibble: 68 x 6
##   variable type      stat     level value formatted
##   <chr>    <chr>     <chr>    <chr> <dbl> <chr>    
## 1 Fish_ID  character missing  .all      0 0        
## 2 Fish_ID  character complete .all    228 228      
## 3 Fish_ID  character n        .all    228 228      
## 4 Fish_ID  character min      .all      5 5        
## 5 Fish_ID  character max      .all      5 5        
## # … with 63 more rows

filter(courtship, is.na(Total_court))

## # A tibble: 1 x 8
##   Fish_ID Family Shelf_stack Diet_comp Prov_level
##   <chr>   <chr>  <chr>       <chr>          <dbl>
## 1 LR021   F117   A3          8.5:1             50
## # … with 3 more variables: Fish_size <chr>,
## #   Trial <dbl>, Total_court <dbl>

228 fish IDs

skim(eggs)

## # A tibble: 57 x 6
##   variable type      stat     level value formatted
##   <chr>    <chr>     <chr>    <chr> <dbl> <chr>    
## 1 Fish_ID  character missing  .all      0 0        
## 2 Fish_ID  character complete .all    269 269      
## 3 Fish_ID  character n        .all    269 269      
## 4 Fish_ID  character min      .all      5 5        
## 5 Fish_ID  character max      .all      5 5        
## # … with 52 more rows

filter(eggs, is.na(Total_egg))

## # A tibble: 1 x 7
##   Fish_ID Family Shelf_stack Diet_comp Prov_level
##   <chr>   <chr>  <chr>       <chr>          <dbl>
## 1 LR212   F121   D3          2.5:1             75
## # … with 2 more variables: Fish_size <chr>,
## #   Total_egg <dbl>

269 fish IDs

skim(length_weight_condition)

## # A tibble: 90 x 6
##   variable type      stat     level value formatted
##   <chr>    <chr>     <chr>    <chr> <dbl> <chr>    
## 1 Fish_ID  character missing  .all      0 0        
## 2 Fish_ID  character complete .all   6000 6000     
## 3 Fish_ID  character n        .all   6000 6000     
## 4 Fish_ID  character min      .all      5 5        
## 5 Fish_ID  character max      .all      5 5        
## # … with 85 more rows

600 fish IDs

skim(mortality)

## # A tibble: 57 x 6
##   variable type      stat     level value formatted
##   <chr>    <chr>     <chr>    <chr> <dbl> <chr>    
## 1 Fish_ID  character missing  .all      0 0        
## 2 Fish_ID  character complete .all  33049 33049    
## 3 Fish_ID  character n        .all  33049 33049    
## 4 Fish_ID  character min      .all      5 5        
## 5 Fish_ID  character max      .all      5 5        
## # … with 52 more rows
…
egg_ids <- unique(pull(eggs, Fish_ID))
courtship_ids <- unique(pull(courtship, Fish_ID))
length(unique(c(egg_ids, courtship_ids)))

## [1] 493

length_weight_condition %>%
  group_by(Diet_comp, Prov_level) %>%
  summarise(n(),
            n_unique=length(unique(Fish_ID)))

## # A tibble: 15 x 4
##   Diet_comp Prov_level `n()` n_unique
##   <chr>          <dbl> <int>    <int>
## 1 1.6:1             50   400       40
## 2 1.6:1             75   400       40
## 3 1.6:1            100   400       40
## 4 10.2:1            50   400       40
## 5 10.2:1            75   400       40
## # … with 10 more rows

length(unique(pull(length_weight_condition, Fish_ID)))

## [1] 600

40 of each, hence 600 fish IDs

mortality %>%
  group_by(Diet_comp, Prov_level) %>%
  summarise(n(),
            n_unique=length(unique(Fish_ID)))

## # A tibble: 15 x 4
##   Diet_comp Prov_level `n()` n_unique
##   <chr>          <dbl> <int>    <int>
## 1 1.6:1             50  2239       39
## 2 1.6:1             75  2519       40
## 3 1.6:1            100  2258       40
## 4 10.2:1            50  1951       40
## 5 10.2:1            75  1668       39
## # … with 10 more rows
…
## Joining, by = c("Fish_ID", "Diet_comp", "Prov_level")

skim(mortality2)

## # A tibble: 50 x 6
##   variable type      stat     level value formatted
##   <chr>    <chr>     <chr>    <chr> <dbl> <chr>    
## 1 Fish_ID  character missing  .all      0 0        
## 2 Fish_ID  character complete .all    594 594      
## 3 Fish_ID  character n        .all    594 594      
## 4 Fish_ID  character min      .all      5 5        
## 5 Fish_ID  character max      .all      5 5        
## # … with 45 more rows
…
