Chapter 5 Are more diverse diets better? | Insights from Data Companion
…
Great, we didn’t get an error. The read_csv() function has done two things. It read in the data and the dd <- assigns the data to a new object called dd (you could give it a name other than dd if you wish).

The read_csv() function also gives a summary of what it found.

5.7 Checking the import worked correctly

Now we should check some basic things about the imported data. Let’s start by checking if it has the correct number of rows and variables, and if variables are the expected (i.e. correct type). We can look at these features of the imported data in many ways. One useful method is to type the name of the data object in the Console and press enter:

dd

## # A tibble: 806 x 10
##      day count    w1    w2     w3 species prey.richness prey.composition
##    <dbl> <chr> <dbl> <dbl>  <dbl>   <dbl>         <dbl>            <dbl>
##  1     2 52    0.356  6.32 0.322        1             1                1
##  2     2 0     0.356  1    1            4             1                1
##  3     2 66    0.360  6.56 0.323        1             1                1
##  4     2 0     0.360  1    1            4             1                1
##  5     2 21    0.303  5.67 0.0843       2             1                2
##  6     2 0     0.303  1    1            4             1                2
##  7     2 44    0.365  4.06 0.0843       2             1                2
##  8     2 0     0.365  1    1            4             1                2
##  9     2 114   0.354  1    1            3             1                3
## 10     2 0     0.354  1    1            4             1                3
## # … with 796 more rows, and 2 more variables: replicate <dbl>, jar <dbl>
…
The first thing we’ll do is make a new dataset containing these two new variables, community_composition and prey_richness, and we’ll get these variables for each prey composition and replicate combination:

comm_comp <- dd %>%
  group_by(prey.composition, replicate) %>%
  summarise(community_composition = paste(unique(species), collapse = ", "),
            prey_richness = length(unique(species)) - 1)

Let’s break this down. We’re doing a group_by—summarise. The group_by is by prey.composition (seven compositions) and replicate (five replicates), so we’re expecting 7 * 5 = 35 rows in this new dataset. Then in the summarise we create in the first line the new community_composition variable, and in the second the new prey_richness variable. To make the new community_composition variable we paste together the species present in the group (composition by replicate combination); we use unique to remove repeats of the species names, and collapse to make the species names in a group be pasted together into one string. Take a look at the new community_composition variable, and then look again at the code above and the description of how we just made this new prey_composition variable.

select(comm_comp, community_composition)

## Adding missing grouping variables: `prey.composition`

## # A tibble: 35 x 2
## # Groups:   prey.composition [7]
##    prey.composition community_composition 
##               <dbl> <chr>                 
##  1                1 Colpidium, Dileptus   
##  2                1 Colpidium, Dileptus   
##  3                1 Colpidium, Dileptus   
##  4                1 Colpidium, Dileptus   
##  5                1 Colpidium, Dileptus   
##  6                2 Collodictyon, Dileptus
##  7                2 Collodictyon, Dileptus
##  8                2 Collodictyon, Dileptus
##  9                2 Collodictyon, Dileptus
## 10                2 Collodictyon, Dileptus
## # … with 25 more rows
…
rm(comm_comp, prey_comp)

It’s not necessary to remove variables that we’re not interested in using anymore, but is often a good idea to do so. It can prevent us accidentally using them, or just from getting confused about what they are and if they are in fact important when we come back to our work after a gap of a few months, as often happens. If we have a rather large dataset, keeping only the essential variables can usefully reduce the size of the dataset.

5.8.2 Make the prey_composition variable a factor with specific order

What on earth did that mean? So far we have not mentioned factors. These are a type of variable that contains words (a bit like character variables) but in which the different words/categories are referred to as levels and have an explicit order. This order affects how some things are done in R, and this is why we want to determine the specific order of the levels of the prey_composition variable. For example, when we make a graph with prey_composition on the x axis we would like the three single-species prey compositions first on the left, then the three two-species prey compositions, then the three-species prey composition on the right.

Before we do this, look at the prey_composition variable in its current state:

select(dd, prey_composition)

## # A tibble: 806 x 1
##    prey_composition
##    <chr>           
##  1 Colpidium       
##  2 Colpidium       
##  3 Colpidium       
##  4 Colpidium       
##  5 Collodictyon    
##  6 Collodictyon    
##  7 Collodictyon    
##  8 Collodictyon    
##  9 Paramecium      
## 10 Paramecium      
## # … with 796 more rows
…
Now let’s see how the prey_composition variable looks:

select(dd, prey_composition)

## # A tibble: 806 x 1
##    prey_composition
##    <fct>           
##  1 Colpidium       
##  2 Colpidium       
##  3 Colpidium       
##  4 Colpidium       
##  5 Collodictyon    
##  6 Collodictyon    
##  7 Collodictyon    
##  8 Collodictyon    
##  9 Paramecium      
## 10 Paramecium      
## # … with 796 more rows
…
unique(pull(dd, day))

##  [1]  2  4  6  8 10 12 14 16 18 20

Samples were taken every two days from day to until a maximum of day 20. So we expect a maximum number of counts of species abundances in a particular replicate to be 10 multiplied by the number of species in a replicate community. I.e. the maximum number of counts in a community with two prey species and the predator (recall that all communities contained the predator) will be 30. Maximum number of counts will be 20 for communities with only one prey species. Note that this is the maximum because we know some values of count were NA.

Let’s now get the number of counts for each replicate community, and while we’re at it, the last day sampled for each replicate. We do this with a group_by %>% summarise pipeline, grouping by the jar and prey_composition variables. We include the prey_composition variable in the grouping so that we have it to refer to in the resulting summary dataset, and place it first in the group_by function so that the summary dataset is arranged by this variable.

temp1 <- dd %>%
  group_by(prey_composition, jar) %>%
  summarise(num_samples = n(),
            max_day = max(day))
temp1

## # A tibble: 35 x 4
## # Groups:   prey_composition [7]
##    prey_composition   jar num_samples max_day
##    <fct>            <dbl>       <int>   <dbl>
##  1 Collodictyon         3          11      12
##  2 Collodictyon         4          11      12
##  3 Collodictyon        18          14      14
##  4 Collodictyon        19          14      14
##  5 Collodictyon        20           4       4
##  6 Colpidium            1          12      12
##  7 Colpidium            2          12      12
##  8 Colpidium           15          20      20
##  9 Colpidium           16          20      20
## 10 Colpidium           17          20      20
## # … with 25 more rows
…
We can also get the number of counts made of each species by using the same code with species added as a grouping variable:

temp2 <- dd %>%
  group_by(prey_composition, jar, species) %>%
  summarise(num_samples = n(),
            max_day = max(day))
temp2

## # A tibble: 95 x 5
## # Groups:   prey_composition, jar [35]
##    prey_composition   jar species      num_samples max_day
##    <fct>            <dbl> <chr>              <int>   <dbl>
##  1 Collodictyon         3 Collodictyon           5      10
##  2 Collodictyon         3 Dileptus               6      12
##  3 Collodictyon         4 Collodictyon           5      10
##  4 Collodictyon         4 Dileptus               6      12
##  5 Collodictyon        18 Collodictyon           7      14
##  6 Collodictyon        18 Dileptus               7      14
##  7 Collodictyon        19 Collodictyon           7      14
##  8 Collodictyon        19 Dileptus               7      14
##  9 Collodictyon        20 Collodictyon           2       4
## 10 Collodictyon        20 Dileptus               2       4
## # … with 85 more rows
…
