Chapter 5 Are diets more diverse in more democratic countries? | Insights from Data with R — Online Companion
…
Please note that here and below we do not describe at all or in much detail the R code used. This is because it is described in detail in the book.

Because we assign the result of this select operation to pol we are getting rid of the previous version of pol with this new one.

The data set has only one observation (of Polity) per row, so it is already tidy… we do not need to gather observations from multiple columns into one.

5.5.4 Deal with NAs

As usual, we should see if there are any NAs in the data, understand what they might result from, and decide what how to treat them. The next code makes a new dataset pol_nas that contains the rows that contain a missing value in any of the three variables.

pol_nas <- pol %>%
  filter_all(any_vars(is.na(.))) 
pol_nas

## # A tibble: 235 x 3
##   Country      Year Polity2
##   <chr>       <dbl>   <dbl>
## 1 Afghanistan  1979      NA
## 2 Afghanistan  1980      NA
## 3 Afghanistan  1981      NA
## 4 Afghanistan  1982      NA
## 5 Afghanistan  1983      NA
## # … with 230 more rows
…
Temporal change in polity in some countries that interest you.

Graphs to visualise these where appropriate.

Answers for some of these are below.

Number of countries, years, first year and last year:

pol %>%
  summarise(num_countries = length(unique(Country)),
            num_years = length(unique(Year)),
            first_year = min(Year),
            last_year = max(Year))

## # A tibble: 193 x 5
##   Country     num_countries num_years first_year last_year
##   <chr>               <int>     <int>      <dbl>     <dbl>
## 1 Afghanistan             1       193       1800      2015
## 2 Albania                 1       102       1914      2015
## 3 Algeria                 1        54       1962      2015
## 4 Angola                  1        41       1975      2015
## 5 Argentina               1       191       1825      2015
## # … with 188 more rows
…
