Chapter 14 Answers and solutions | Companion Website — Insights from Data with R
…
Q6.10 Make a pipeline of operations, just like the one in the Insights book, that will calculate the number of prey species in the poop of each bat, and the average number of prey per bat for each taxonomic Order.

Answer:

bats %>%
  group_by(Bat_ID, Order) %>%
  summarise(Num_prey = n()) %>%
  group_by(Order) %>%
  summarise(Mean_num_prey = mean(Num_prey))

## `summarise()` regrouping output by 'Bat_ID' (override with `.groups` argument)

## `summarise()` ungrouping output (override with `.groups` argument)

## # A tibble: 7 x 2
##   Order       Mean_num_prey
##   <chr>               <dbl>
## 1 Coleoptera           1   
## 2 Diptera              1.12
## 3 Hemiptera            1   
## 4 Lepidoptera          4.06
## 5 Neuroptera           1.29
## # … with 2 more rows
…
