Chapter 11 Live data analysis demonstration | Companion Website — Insights from Data with R
…
# Now read in the data, using the read_csv() function. We give it the URL of the published version of the google sheet data.
# Instructors: update the url to be for your googlesheet
the_URL <- "https://docs.google.com/spreadsheets/d/e/2PACX-1vT-Uvx2LYX3APsXgjKw1XnIi-jKOi-QNAINmMu234JLvyDZezABPfO-_QnJ5ZtC3wed9pYdxs8-pyK7/pub?output=csv"
class_RTs <- read_csv(the_URL)

# Have a look at the data in R
#View(class_RTs)
# or just do
class_RTs

## # A tibble: 14 x 16
##   Timestamp `Please enter t… `What was your …
##   <chr>     <chr>            <chr>           
## 1 2/12/201… owen             Male            
## 2 2/22/201… STATGF           Female          
## 3 2/22/201… 1616             Female          
## 4 2/22/201… hgztgeru         Female          
## 5 2/22/201… dfgadf           Male            
## # … with 9 more rows, and 13 more variables: `Please
## #   enter your weight, in kilograms.` <dbl>, `Are you
## #   right handed, left handed, or
## #   ambidextrous?` <chr>, `Using your PREFERRED hand
## #   to take the test: Please enter your FIRST reaction
## #   time in milliseconds (e.g., 326).` <dbl>, `Using
## #   your PREFERRED hand to take the test: Please enter
## #   your SECOND reaction time in milliseconds (e.g.,
## #   326).` <dbl>, `Using your PREFERRED hand to take
…
11.12 Now we need to do some data wrangling (cleaning and tidying)

11.12.1 Clean up the column / variable names:

# Must be very careful to get the next line right!!! Really important!!!
names(class_RTs) <- c("Timestamp", "ID", "Sex", "Pref_Reaction_time_1",
                      "Verbal_memory_score", "Number_memory_score",
                      "Visual_memory_score",
                      "Weight_kgs", "Handed", "Nonpref_Reaction_time_ave",  "Pref_Reaction_time_2",
                      "Pref_Reaction_time_3",  "Pref_Reaction_time_4", "Pref_Reaction_time_5",
                      "Pref_Reaction_time", "Random_number")
class_RTs

## # A tibble: 14 x 16
##   Timestamp ID    Sex   Pref_Reaction_t…
##   <chr>     <chr> <chr>            <dbl>
## 1 2/12/201… owen  Male                80
## 2 2/22/201… STAT… Fema…              365
## 3 2/22/201… 1616  Fema…              250
## 4 2/22/201… hgzt… Fema…              366
## 5 2/22/201… dfga… Male               287
## # … with 9 more rows, and 12 more variables:
## #   Verbal_memory_score <chr>,
## #   Number_memory_score <dbl>,
## #   Visual_memory_score <dbl>, Weight_kgs <dbl>,
## #   Handed <chr>, Nonpref_Reaction_time_ave <dbl>,
## #   Pref_Reaction_time_2 <dbl>,
## #   Pref_Reaction_time_3 <dbl>,
## #   Pref_Reaction_time_4 <dbl>,
## #   Pref_Reaction_time_5 <dbl>,
## #   Pref_Reaction_time <dbl>, Random_number <dbl>

11.12.2 Check the variable types are correct.

Timestamp should be a character

ID should be a character

Sex should be a character

The remaining four variables should be numeric ( if fractional,  if whole numbers).

class_RTs

## # A tibble: 14 x 16
##   Timestamp ID    Sex   Pref_Reaction_t…
##   <chr>     <chr> <chr>            <dbl>
## 1 2/12/201… owen  Male                80
## 2 2/22/201… STAT… Fema…              365
## 3 2/22/201… 1616  Fema…              250
## 4 2/22/201… hgzt… Fema…              366
## 5 2/22/201… dfga… Male               287
## # … with 9 more rows, and 12 more variables:
## #   Verbal_memory_score <chr>,
## #   Number_memory_score <dbl>,
## #   Visual_memory_score <dbl>, Weight_kgs <dbl>,
## #   Handed <chr>, Nonpref_Reaction_time_ave <dbl>,
## #   Pref_Reaction_time_2 <dbl>,
## #   Pref_Reaction_time_3 <dbl>,
## #   Pref_Reaction_time_4 <dbl>,
## #   Pref_Reaction_time_5 <dbl>,
…
table(class_RTs$Sex)

## 
## Female   Male 
##     10      4

11.12.5 Check the number of observations

Should be the same as we saw in the datasheet, which should be number of you in this classroom.

The number of observations and variables is given by R in the first line of output when we type the name of the data object:

class_RTs

## # A tibble: 14 x 16
##   Timestamp ID    Sex   Pref_Reaction_t…
##   <chr>     <chr> <chr>            <dbl>
## 1 2/12/201… owen  Male                80
## 2 2/22/201… STAT… Fema…              365
## 3 2/22/201… 1616  Fema…              250
## 4 2/22/201… hgzt… Fema…              366
## 5 2/22/201… dfga… Male               287
## # … with 9 more rows, and 12 more variables:
## #   Verbal_memory_score <chr>,
## #   Number_memory_score <dbl>,
## #   Visual_memory_score <dbl>, Weight_kgs <dbl>,
## #   Handed <chr>, Nonpref_Reaction_time_ave <dbl>,
## #   Pref_Reaction_time_2 <dbl>,
## #   Pref_Reaction_time_3 <dbl>,
## #   Pref_Reaction_time_4 <dbl>,
## #   Pref_Reaction_time_5 <dbl>,
…
