Chapter 9 Solutions: What are the effects of dietary restriction? | Companion Website — Insights from Data with R
…
586 of the 594 fish in the mortality dataset have more than one observation… there is non-independence that we’ll have to deal with.

9.3 Balance in experimental design

Q21: From the description of the experiment in the paper, how many fish are there per treatment combination?

courtship %>%
  group_by(Diet_comp, Prov_level) %>%
  summarise(count=n(),
            n_unique=length(unique(Fish_ID)))

## `summarise()` regrouping output by 'Diet_comp' (override with `.groups` argument)

## # A tibble: 15 x 4
##   Diet_comp Prov_level count n_unique
##   <chr>          <dbl> <int>    <int>
## 1 1.6:1             50    17       17
## 2 1.6:1             75    19       19
## 3 1.6:1            100    15       15
## 4 10.2:1            50    12       12
## 5 10.2:1            75    12       12
## # … with 10 more rows

eggs %>%
  group_by(Diet_comp, Prov_level) %>%
  summarise(n(),
            n_unique=length(unique(Fish_ID)))

## `summarise()` regrouping output by 'Diet_comp' (override with `.groups` argument)

## # A tibble: 15 x 4
##   Diet_comp Prov_level `n()` n_unique
##   <chr>          <dbl> <int>    <int>
## 1 1.6:1             50    14       14
## 2 1.6:1             75    17       17
## 3 1.6:1            100    17       17
## 4 10.2:1            50    18       18
## 5 10.2:1            75    18       18
## # … with 10 more rows

length_weight_condition %>%
  group_by(Diet_comp, Prov_level) %>%
  summarise(n(),
            n_unique=length(unique(Fish_ID)))

## `summarise()` regrouping output by 'Diet_comp' (override with `.groups` argument)

## # A tibble: 15 x 4
##   Diet_comp Prov_level `n()` n_unique
##   <chr>          <dbl> <int>    <int>
## 1 1.6:1             50   400       40
## 2 1.6:1             75   400       40
## 3 1.6:1            100   400       40
## 4 10.2:1            50   400       40
## 5 10.2:1            75   400       40
## # … with 10 more rows

mortality %>%
  group_by(Diet_comp, Prov_level) %>%
  summarise(n(),
            n_unique=length(unique(Fish_ID)))

## `summarise()` regrouping output by 'Diet_comp' (override with `.groups` argument)

## # A tibble: 15 x 4
##   Diet_comp Prov_level `n()` n_unique
##   <chr>          <dbl> <int>    <int>
## 1 1.6:1             50  2239       39
## 2 1.6:1             75  2519       40
## 3 1.6:1            100  2258       40
## 4 10.2:1            50  1951       40
## 5 10.2:1            75  1668       39
## # … with 10 more rows
…
